OnDeviceAI2/0615_I2C_FPGA_tb/0615_I2C_FPGA.sim/sim_1/behav/xsim/tb_uart_i2c_system.vcd
$date
   Tue Jun 16 20:33:29 2026
$end
$version
  2020.2
$end
$timescale
  1ps
$end
$scope module tb_uart_i2c_system $end
$var reg 1 ! clk $end
$var reg 1 " master_reset $end
$var reg 1 # slave_reset_n $end
$var reg 1 $ uart_rxd $end
$var wire 1 % scl $end
$var wire 1 & sda $end
$var reg 1 ' uart_txd $end
$var parameter 0 ( CLK_FREQ_HZ $end
$var parameter 0 ) UART_BAUD $end
$var parameter 0 * UART_BIT_NS $end
$var parameter 7 + SLAVE_ADDR [6:0] $end
$var parameter 8 , TEST_DATA [7:0] $end
$scope module U_MASTER_TOP $end
$var wire 1 - clk $end
$var wire 1 . reset $end
$var wire 1 / uart_rxd $end
$var reg 1 0 scl $end
$var wire 1 & sda $end
$var reg 4 1 state [3:0] $end
$var reg 1 2 b_tick $end
$var reg 1 3 rx_done $end
$var reg 8 4 uart_rx_data [7:0] $end
$var reg 8 5 uart_data_latched [7:0] $end
$var reg 1 6 cmd_start $end
$var reg 1 7 cmd_write $end
$var reg 1 8 cmd_read $end
$var reg 1 9 cmd_stop $end
$var reg 8 : tx_data [7:0] $end
$var reg 8 ; i2c_rx_data [7:0] $end
$var reg 1 < ack_in $end
$var reg 1 = ack_out $end
$var reg 1 > i2c_busy $end
$var reg 1 ? i2c_done $end
$var reg 1 @ busy_seen $end
$var reg 1 A ack_error $end
$var parameter 0 B CLK_FREQ_HZ $end
$var parameter 0 C UART_BAUD $end
$var parameter 0 D UART_OVERSAMPLE $end
$var parameter 7 E SLAVE_ADDR [6:0] $end
$var parameter 0 F UART_TICK_COUNT $end
$scope module U_BAUD_TICK_GEN $end
$var wire 1 - clk $end
$var wire 1 . rst $end
$var reg 1 2 o_b_tick $end
$var reg 3 G counter_reg [2:0] $end
$var parameter 32 H F_COUNT [31:0] $end
$var parameter 32 I WIDTH [31:0] $end
$upscope $end
$scope module U_UART_RX $end
$var wire 1 - clk $end
$var wire 1 . rst $end
$var wire 1 J b_tick $end
$var wire 1 / rx $end
$var wire 8 K rx_data [7:0] $end
$var wire 1 L rx_done $end
$var reg 2 M c_state [1:0] $end
$var reg 2 N n_state [1:0] $end
$var reg 5 O b_tick_cnt_reg [4:0] $end
$var reg 5 P b_tick_cnt_next [4:0] $end
$var reg 3 Q bit_cnt_reg [2:0] $end
$var reg 3 R bit_cnt_next [2:0] $end
$var reg 8 S data_reg [7:0] $end
$var reg 8 T data_next [7:0] $end
$var reg 1 U rx_done_reg $end
$var reg 1 V rx_done_next $end
$var parameter 32 W IDLE [31:0] $end
$var parameter 32 X START [31:0] $end
$var parameter 32 Y DATA [31:0] $end
$var parameter 32 Z STOP [31:0] $end
$upscope $end
$scope module U_I2C_MASTER_TOP $end
$var wire 1 - clk $end
$var wire 1 . reset $end
$var wire 1 [ cmd_start $end
$var wire 1 \ cmd_write $end
$var wire 1 ] cmd_read $end
$var wire 1 ^ cmd_stop $end
$var wire 8 _ tx_data [7:0] $end
$var reg 8 ; rx_data [7:0] $end
$var wire 1 ` ack_in $end
$var reg 1 = ack_out $end
$var reg 1 > busy $end
$var reg 1 ? done $end
$var reg 1 0 scl $end
$var wire 1 & sda $end
$var reg 1 a sda_o $end
$var reg 1 b sda_i $end
$scope module u_i2c_master $end
$var wire 1 - clk $end
$var wire 1 . reset $end
$var wire 1 [ cmd_start $end
$var wire 1 \ cmd_write $end
$var wire 1 ] cmd_read $end
$var wire 1 ^ cmd_stop $end
$var wire 8 _ tx_data [7:0] $end
$var reg 8 ; rx_data [7:0] $end
$var wire 1 ` ack_in $end
$var reg 1 = ack_out $end
$var reg 1 > busy $end
$var reg 1 ? done $end
$var reg 1 0 scl $end
$var reg 1 a sda_o $end
$var wire 1 c sda_i $end
$var reg 3 d state [2:0] $end
$var reg 8 e div_cnt [7:0] $end
$var reg 1 f qtr_tick $end
$var reg 1 g scl_r $end
$var reg 1 h sda_r $end
$var reg 2 i step [1:0] $end
$var reg 8 j tx_shift_reg [7:0] $end
$var reg 8 k rx_shift_reg [7:0] $end
$var reg 3 l bit_cnt [2:0] $end
$var reg 1 m is_read $end
$var reg 1 n ack_in_r $end
$upscope $end
$upscope $end
$upscope $end
$scope module U_SLAVE_TOP $end
$var wire 1 o clk $end
$var wire 1 p reset_n $end
$var wire 1 % scl $end
$var wire 1 & sda $end
$var reg 1 ' uart_txd $end
$var reg 2 q state [1:0] $end
$var reg 3 r baud_cnt [2:0] $end
$var reg 1 s b_tick $end
$var reg 8 t i2c_data_out [7:0] $end
$var reg 1 u i2c_data_valid $end
$var reg 1 v tx_start $end
$var reg 8 w tx_data [7:0] $end
$var reg 1 x tx_busy $end
$var reg 1 y tx_busy_seen $end
$var parameter 0 z CLK_FREQ_HZ $end
$var parameter 0 { UART_BAUD $end
$var parameter 0 | UART_OVERSAMPLE $end
$var parameter 7 } SLAVE_ADDR [6:0] $end
$var parameter 0 ~ BAUD_TICK_COUNT $end
$var parameter 0 !! BAUD_CNT_WIDTH $end
$scope module U_I2C_SLAVE $end
$var wire 1 o clk $end
$var wire 1 p reset_n $end
$var reg 8 t data_out [7:0] $end
$var reg 1 u data_valid $end
$var wire 1 & sda $end
$var wire 1 % scl $end
$var reg 3 "! state [2:0] $end
$var reg 3 #! scl_sync [2:0] $end
$var reg 3 $! sda_sync [2:0] $end
$var reg 8 %! addr_byte [7:0] $end
$var reg 8 &! data_byte [7:0] $end
$var reg 3 '! bit_cnt [2:0] $end
$var reg 1 (! sda_drive_low $end
$var reg 1 )! addr_match $end
$var reg 1 *! write_bit_ok $end
$var reg 1 +! data_ready $end
$var wire 1 ,! scl_rise $end
$var wire 1 -! scl_fall $end
$var wire 1 .! start_condition $end
$var wire 1 /! stop_condition $end
$var parameter 7 0! SLAVE_ADDR [6:0] $end
$upscope $end
$scope module U_UART_TX $end
$var wire 1 o clk $end
$var wire 1 1! rst $end
$var wire 1 2! tx_start $end
$var wire 8 3! tx_data [7:0] $end
$var wire 1 4! b_tick $end
$var wire 1 5! tx_busy $end
$var wire 1 6! tx $end
$var reg 3 7! c_state [2:0] $end
$var reg 3 8! n_state [2:0] $end
$var reg 1 9! tx_reg $end
$var reg 1 :! tx_next $end
$var reg 8 ;! data_reg [7:0] $end
$var reg 8 <! data_next [7:0] $end
$var reg 3 =! bit_cnt_reg [2:0] $end
$var reg 3 >! bit_cnt_next [2:0] $end
$var reg 4 ?! b_tick_cnt_reg [3:0] $end
$var reg 4 @! b_tick_cnt_next [3:0] $end
$var reg 1 A! tx_busy_reg $end
$var reg 1 B! tx_busy_next $end
$var parameter 32 C! IDLE [31:0] $end
$var parameter 32 D! START [31:0] $end
$var parameter 32 E! DATA [31:0] $end
$var parameter 32 F! STOP [31:0] $end
$var parameter 32 G! BIT_CNT [31:0] $end
$upscope $end
$upscope $end
$scope begin Block83_14 $end
$var reg 8 H! received_data [7:0] $end
$upscope $end
$scope task uart_send_byte $end
$var reg 8 I! data [7:0] $end
$var reg 32 J! i $end
$upscope $end
$scope task uart_recv_byte $end
$var reg 8 I! data [7:0] $end
$var reg 32 J! i $end
$upscope $end
$upscope $end
$enddefinitions $end
#0
$dumpvars
0!
b11 !!
1"
b0 "!
0#
b111 #!
1$
b111 $!
1%
b0 %!
1&
b0 &!
1'
b111 '!
b101111101011110000100000000 (
0(!
b11110100001001000000 )
0)!
b1111101000 *
0*!
b1000010 +
0+!
b10100101 ,
0,!
0-
0-!
1.
0.!
1/
0/!
10
b1000010 0!
b0 1
11!
02
02!
03
b0 3!
b0 4
04!
b0 5
05!
06
16!
07
b0 7!
08
b0 8!
09
19!
b0 :
1:!
bx ;
b0 ;!
1<
b0 <!
x=
b0 =!
0>
b0 >!
0?
b0 ?!
0@
b0 @!
0A
0A!
b101111101011110000100000000 B
0B!
b11110100001001000000 C
b0 C!
b10000 D
b1 D!
b1000010 E
b10 E!
b110 F
b11 F!
b0 G
b111 G!
b110 H
bx H!
b10 I
b0 I!
0J
b0 J!
b0 K
0L
b0 M
b0 N
b0 O
b0 P
b0 Q
b0 R
b0 S
b0 T
0U
0V
b0 W
b1 X
b10 Y
b11 Z
0[
0\
0]
0^
b0 _
1`
1a
1b
1c
b0 d
b0 e
0f
1g
1h
b0 i
b0 j
b0 k
b0 l
0m
1n
0o
0p
b0 q
b0 r
0s
b0 t
0u
0v
b0 w
0x
0y
b101111101011110000100000000 z
b11110100001001000000 {
b10000 |
b1000010 }
b110 ~
$end
#5000
1!
1-
1o
#10000
0!
0-
0o
#15000
1!
1-
1o
#20000
0!
0-
0o
#25000
1!
1-
1o
#30000
0!
0-
0o
#35000
1!
1-
1o
#40000
0!
0-
0o
#45000
1!
1-
1o
#50000
0!
0-
0o
#55000
1!
1-
1o
#60000
0!
0-
0o
#65000
1!
1-
1o
#70000
0!
0-
0o
#75000
1!
1-
1o
#80000
0!
0-
0o
#85000
1!
1-
1o
#90000
0!
0-
0o
#95000
1!
1-
1o
#100000
0!
0-
0o
#105000
1!
1-
1o
#110000
0!
0-
0o
#115000
1!
1-
1o
#120000
0!
0-
0o
#125000
1!
1-
1o
#130000
0!
0-
0o
#135000
1!
1-
1o
#140000
0!
0-
0o
#145000
1!
1-
1o
#150000
0!
0-
0o
#155000
1!
1-
1o
#160000
0!
0-
0o
#165000
1!
1-
1o
#170000
0!
0-
0o
#175000
1!
1-
1o
#180000
0!
0-
0o
#185000
1!
1-
1o
#190000
0!
0-
0o
#195000
1!
0"
1#
1-
0.
01!
b1 G
b1 e
1o
1p
b1 r
#200000
0!
0-
0o
#205000
1!
1-
b10 G
b10 e
1o
b10 r
#210000
0!
0-
0o
#215000
1!
1-
b11 G
b11 e
1o
b11 r
#220000
0!
0-
0o
#225000
1!
1-
b100 G
b100 e
1o
b100 r
#230000
0!
0-
0o
#235000
1!
1-
b101 G
b101 e
1o
b101 r
#240000
0!
0-
0o
#245000
1!
1-
12
14!
b0 G
1J
b110 e
1o
b0 r
1s
#250000
0!
0-
0o
#255000
1!
1-
02
04!
b1 G
0J
b111 e
1o
b1 r
0s
#260000
0!
0-
0o
#265000
1!
1-
b10 G
b1000 e
1o
b10 r
#270000
0!
0-
0o
#275000
1!
1-
b11 G
b1001 e
1o
b11 r
#280000
0!
0-
0o
#285000
1!
1-
b100 G
b1010 e
1o
b100 r
#290000
0!
0-
0o
#295000
1!
1-
b101 G
b1011 e
1o
b101 r
#300000
0!
0-
0o
#305000
1!
1-
12
14!
b0 G
1J
b1100 e
1o
b0 r
1s
#310000
0!
0-
0o
#315000
1!
1-
02
04!
b1 G
0J
b1101 e
1o
b1 r
0s
#320000
0!
0-
0o
#325000
1!
1-
b10 G
b1110 e
1o
b10 r
#330000
0!
0-
0o
#335000
1!
1-
b11 G
b1111 e
1o
b11 r
#340000
0!
0-
0o
#345000
1!
1-
b100 G
b10000 e
1o
b100 r
#350000
0!
0-
0o
#355000
1!
1-
b101 G
b10001 e
1o
b101 r
#360000
0!
0-
0o
#365000
1!
1-
12
14!
b0 G
1J
b10010 e
1o
b0 r
1s
#370000
0!
0-
0o
#375000
1!
1-
02
04!
b1 G
0J
b10011 e
1o
b1 r
0s
#380000
0!
0-
0o
#385000
1!
1-
b10 G
b10100 e
1o
b10 r
#390000
0!
0-
0o
#395000
1!
1-
b11 G
b10101 e
1o
b11 r
#400000
0!
0-
0o
#405000
1!
1-
b100 G
b10110 e
1o
b100 r
#410000
0!
0-
0o
#415000
1!
1-
b101 G
b10111 e
1o
b101 r
#420000
0!
0-
0o
#425000
1!
1-
12
14!
b0 G
1J
b11000 e
1o
b0 r
1s
#430000
0!
0-
0o
#435000
1!
1-
02
04!
b1 G
0J
b11001 e
1o
b1 r
0s
#440000
0!
0-
0o
#445000
1!
1-
b10 G
b11010 e
1o
b10 r
#450000
0!
0-
0o
#455000
1!
1-
b11 G
b11011 e
1o
b11 r
#460000
0!
0-
0o
#465000
1!
1-
b100 G
b11100 e
1o
b100 r
#470000
0!
0-
0o
#475000
1!
1-
b101 G
b11101 e
1o
b101 r
#480000
0!
0-
0o
#485000
1!
1-
12
14!
b0 G
1J
b11110 e
1o
b0 r
1s
#490000
0!
0-
0o
#495000
1!
1-
02
04!
b1 G
0J
b11111 e
1o
b1 r
0s
#500000
0!
0-
0o
#505000
1!
1-
b10 G
b100000 e
1o
b10 r
#510000
0!
0-
0o
#515000
1!
1-
b11 G
b100001 e
1o
b11 r
#520000
0!
0-
0o
#525000
1!
1-
b100 G
b100010 e
1o
b100 r
#530000
0!
0-
0o
#535000
1!
1-
b101 G
b100011 e
1o
b101 r
#540000
0!
0-
0o
#545000
1!
1-
12
14!
b0 G
1J
b100100 e
1o
b0 r
1s
#550000
0!
0-
0o
#555000
1!
1-
02
04!
b1 G
0J
b100101 e
1o
b1 r
0s
#560000
0!
0-
0o
#565000
1!
1-
b10 G
b100110 e
1o
b10 r
#570000
0!
0-
0o
#575000
1!
1-
b11 G
b100111 e
1o
b11 r
#580000
0!
0-
0o
#585000
1!
1-
b100 G
b101000 e
1o
b100 r
#590000
0!
0-
0o
#595000
1!
1-
b101 G
b101001 e
1o
b101 r
#600000
0!
0-
0o
#605000
1!
1-
12
14!
b0 G
1J
b101010 e
1o
b0 r
1s
#610000
0!
0-
0o
#615000
1!
1-
02
04!
b1 G
0J
b101011 e
1o
b1 r
0s
#620000
0!
0-
0o
#625000
1!
1-
b10 G
b101100 e
1o
b10 r
#630000
0!
0-
0o
#635000
1!
1-
b11 G
b101101 e
1o
b11 r
#640000
0!
0-
0o
#645000
1!
1-
b100 G
b101110 e
1o
b100 r
#650000
0!
0-
0o
#655000
1!
1-
b101 G
b101111 e
1o
b101 r
#660000
0!
0-
0o
#665000
1!
1-
12
14!
b0 G
1J
b110000 e
1o
b0 r
1s
#670000
0!
0-
0o
#675000
1!
1-
02
04!
b1 G
0J
b110001 e
1o
b1 r
0s
#680000
0!
0-
0o
#685000
1!
1-
b10 G
b110010 e
1o
b10 r
#690000
0!
0-
0o
#695000
1!
1-
b11 G
b110011 e
1o
b11 r
#700000
0!
0-
0o
#705000
1!
1-
b100 G
b110100 e
1o
b100 r
#710000
0!
0-
0o
#715000
1!
1-
b101 G
b110101 e
1o
b101 r
#720000
0!
0-
0o
#725000
1!
1-
12
14!
b0 G
1J
b110110 e
1o
b0 r
1s
#730000
0!
0-
0o
#735000
1!
1-
02
04!
b1 G
0J
b110111 e
1o
b1 r
0s
#740000
0!
0-
0o
#745000
1!
1-
b10 G
b111000 e
1o
b10 r
#750000
0!
0-
0o
#755000
1!
1-
b11 G
b111001 e
1o
b11 r
#760000
0!
0-
0o
#765000
1!
1-
b100 G
b111010 e
1o
b100 r
#770000
0!
0-
0o
#775000
1!
1-
b101 G
b111011 e
1o
b101 r
#780000
0!
0-
0o
#785000
1!
1-
12
14!
b0 G
1J
b111100 e
1o
b0 r
1s
#790000
0!
0-
0o
#795000
1!
1-
02
04!
b1 G
0J
b111101 e
1o
b1 r
0s
#800000
0!
0-
0o
#805000
1!
1-
b10 G
b111110 e
1o
b10 r
#810000
0!
0-
0o
#815000
1!
1-
b11 G
b111111 e
1o
b11 r
#820000
0!
0-
0o
#825000
1!
1-
b100 G
b1000000 e
1o
b100 r
#830000
0!
0-
0o
#835000
1!
1-
b101 G
b1000001 e
1o
b101 r
#840000
0!
0-
0o
#845000
1!
1-
12
14!
b0 G
1J
b1000010 e
1o
b0 r
1s
#850000
0!
0-
0o
#855000
1!
1-
02
04!
b1 G
0J
b1000011 e
1o
b1 r
0s
#860000
0!
0-
0o
#865000
1!
1-
b10 G
b1000100 e
1o
b10 r
#870000
0!
0-
0o
#875000
1!
1-
b11 G
b1000101 e
1o
b11 r
#880000
0!
0-
0o
#885000
1!
1-
b100 G
b1000110 e
1o
b100 r
#890000
0!
0-
0o
#895000
1!
1-
b101 G
b1000111 e
1o
b101 r
#900000
0!
0-
0o
#905000
1!
1-
12
14!
b0 G
1J
b1001000 e
1o
b0 r
1s
#910000
0!
0-
0o
#915000
1!
1-
02
04!
b1 G
0J
b1001001 e
1o
b1 r
0s
#920000
0!
0-
0o
#925000
1!
1-
b10 G
b1001010 e
1o
b10 r
#930000
0!
0-
0o
#935000
1!
1-
b11 G
b1001011 e
1o
b11 r
#940000
0!
0-
0o
#945000
1!
1-
b100 G
b1001100 e
1o
b100 r
#950000
0!
0-
0o
#955000
1!
1-
b101 G
b1001101 e
1o
b101 r
#960000
0!
0-
0o
#965000
1!
1-
12
14!
b0 G
1J
b1001110 e
1o
b0 r
1s
#970000
0!
0-
0o
#975000
1!
1-
02
04!
b1 G
0J
b1001111 e
1o
b1 r
0s
#980000
0!
0-
0o
#985000
1!
1-
b10 G
b1010000 e
1o
b10 r
#990000
0!
0-
0o
#995000
1!
1-
b11 G
b1010001 e
1o
b11 r
#1000000
0!
0-
0o
#1005000
1!
1-
b100 G
b1010010 e
1o
b100 r
#1010000
0!
0-
0o
#1015000
1!
1-
b101 G
b1010011 e
1o
b101 r
#1020000
0!
0-
0o
#1025000
1!
1-
12
14!
b0 G
1J
b1010100 e
1o
b0 r
1s
#1030000
0!
0-
0o
#1035000
1!
1-
02
04!
b1 G
0J
b1010101 e
1o
b1 r
0s
#1040000
0!
0-
0o
#1045000
1!
1-
b10 G
b1010110 e
1o
b10 r
#1050000
0!
0-
0o
#1055000
1!
1-
b11 G
b1010111 e
1o
b11 r
#1060000
0!
0-
0o
#1065000
1!
1-
b100 G
b1011000 e
1o
b100 r
#1070000
0!
0-
0o
#1075000
1!
1-
b101 G
b1011001 e
1o
b101 r
#1080000
0!
0-
0o
#1085000
1!
1-
12
14!
b0 G
1J
b1011010 e
1o
b0 r
1s
#1090000
0!
0-
0o
#1095000
1!
1-
02
04!
b1 G
0J
b1011011 e
1o
b1 r
0s
#1100000
0!
0-
0o
#1105000
1!
1-
b10 G
b1011100 e
1o
b10 r
#1110000
0!
0-
0o
#1115000
1!
1-
b11 G
b1011101 e
1o
b11 r
#1120000
0!
0-
0o
#1125000
1!
1-
b100 G
b1011110 e
1o
b100 r
#1130000
0!
0-
0o
#1135000
1!
1-
b101 G
b1011111 e
1o
b101 r
#1140000
0!
0-
0o
#1145000
1!
1-
12
14!
b0 G
1J
b1100000 e
1o
b0 r
1s
#1150000
0!
0-
0o
#1155000
1!
1-
02
04!
b1 G
0J
b1100001 e
1o
b1 r
0s
#1160000
0!
0-
0o
#1165000
1!
1-
b10 G
b1100010 e
1o
b10 r
#1170000
0!
0-
0o
#1175000
1!
1-
b11 G
b1100011 e
1o
b11 r
#1180000
0!
0-
0o
#1185000
1!
1-
b100 G
b1100100 e
1o
b100 r
#1190000
0!
0-
0o
#1195000
1!
1-
b101 G
b1100101 e
1o
b101 r
#1200000
0!
0-
0o
#1205000
1!
1-
12
14!
b0 G
1J
b1100110 e
1o
b0 r
1s
#1210000
0!
0-
0o
#1215000
1!
1-
02
04!
b1 G
0J
b1100111 e
1o
b1 r
0s
#1220000
0!
0-
0o
#1225000
1!
1-
b10 G
b1101000 e
1o
b10 r
#1230000
0!
0-
0o
#1235000
1!
1-
b11 G
b1101001 e
1o
b11 r
#1240000
0!
0-
0o
#1245000
1!
1-
b100 G
b1101010 e
1o
b100 r
#1250000
0!
0-
0o
#1255000
1!
1-
b101 G
b1101011 e
1o
b101 r
#1260000
0!
0-
0o
#1265000
1!
1-
12
14!
b0 G
1J
b1101100 e
1o
b0 r
1s
#1270000
0!
0-
0o
#1275000
1!
1-
02
04!
b1 G
0J
b1101101 e
1o
b1 r
0s
#1280000
0!
0-
0o
#1285000
1!
1-
b10 G
b1101110 e
1o
b10 r
#1290000
0!
0-
0o
#1295000
1!
1-
b11 G
b1101111 e
1o
b11 r
#1300000
0!
0-
0o
#1305000
1!
1-
b100 G
b1110000 e
1o
b100 r
#1310000
0!
0-
0o
#1315000
1!
1-
b101 G
b1110001 e
1o
b101 r
#1320000
0!
0-
0o
#1325000
1!
1-
12
14!
b0 G
1J
b1110010 e
1o
b0 r
1s
#1330000
0!
0-
0o
#1335000
1!
1-
02
04!
b1 G
0J
b1110011 e
1o
b1 r
0s
#1340000
0!
0-
0o
#1345000
1!
1-
b10 G
b1110100 e
1o
b10 r
#1350000
0!
0-
0o
#1355000
1!
1-
b11 G
b1110101 e
1o
b11 r
#1360000
0!
0-
0o
#1365000
1!
1-
b100 G
b1110110 e
1o
b100 r
#1370000
0!
0-
0o
#1375000
1!
1-
b101 G
b1110111 e
1o
b101 r
#1380000
0!
0-
0o
#1385000
1!
1-
12
14!
b0 G
1J
b1111000 e
1o
b0 r
1s
#1390000
0!
0-
0o
#1395000
1!
0$
1-
0/
02
04!
b1 G
0J
b1 M
b1 N
b1111001 e
1o
b1 r
0s
#1400000
0!
0-
0o
#1405000
1!
1-
b10 G
b1111010 e
1o
b10 r
#1410000
0!
0-
0o
#1415000
1!
1-
b11 G
b1111011 e
1o
b11 r
#1420000
0!
0-
0o
#1425000
1!
1-
b100 G
b1111100 e
1o
b100 r
#1430000
0!
0-
0o
#1435000
1!
1-
b101 G
b1111101 e
1o
b101 r
#1440000
0!
0-
0o
#1445000
1!
1-
12
14!
b0 G
1J
b1 P
b1111110 e
1o
b0 r
1s
#1450000
0!
0-
0o
#1455000
1!
1-
02
04!
b1 G
0J
b1 O
b1111111 e
1o
b1 r
0s
#1460000
0!
0-
0o
#1465000
1!
1-
b10 G
b10000000 e
1o
b10 r
#1470000
0!
0-
0o
#1475000
1!
1-
b11 G
b10000001 e
1o
b11 r
#1480000
0!
0-
0o
#1485000
1!
1-
b100 G
b10000010 e
1o
b100 r
#1490000
0!
0-
0o
#1495000
1!
1-
b101 G
b10000011 e
1o
b101 r
#1500000
0!
0-
0o
#1505000
1!
1-
12
14!
b0 G
1J
b10 P
b10000100 e
1o
b0 r
1s
#1510000
0!
0-
0o
#1515000
1!
1-
02
04!
b1 G
0J
b10 O
b10000101 e
1o
b1 r
0s
#1520000
0!
0-
0o
#1525000
1!
1-
b10 G
b10000110 e
1o
b10 r
#1530000
0!
0-
0o
#1535000
1!
1-
b11 G
b10000111 e
1o
b11 r
#1540000
0!
0-
0o
#1545000
1!
1-
b100 G
b10001000 e
1o
b100 r
#1550000
0!
0-
0o
#1555000
1!
1-
b101 G
b10001001 e
1o
b101 r
#1560000
0!
0-
0o
#1565000
1!
1-
12
14!
b0 G
1J
b11 P
b10001010 e
1o
b0 r
1s
#1570000
0!
0-
0o
#1575000
1!
1-
02
04!
b1 G
0J
b11 O
b10001011 e
1o
b1 r
0s
#1580000
0!
0-
0o
#1585000
1!
1-
b10 G
b10001100 e
1o
b10 r
#1590000
0!
0-
0o
#1595000
1!
1-
b11 G
b10001101 e
1o
b11 r
#1600000
0!
0-
0o
#1605000
1!
1-
b100 G
b10001110 e
1o
b100 r
#1610000
0!
0-
0o
#1615000
1!
1-
b101 G
b10001111 e
1o
b101 r
#1620000
0!
0-
0o
#1625000
1!
1-
12
14!
b0 G
1J
b100 P
b10010000 e
1o
b0 r
1s
#1630000
0!
0-
0o
#1635000
1!
1-
02
04!
b1 G
0J
b100 O
b10010001 e
1o
b1 r
0s
#1640000
0!
0-
0o
#1645000
1!
1-
b10 G
b10010010 e
1o
b10 r
#1650000
0!
0-
0o
#1655000
1!
1-
b11 G
b10010011 e
1o
b11 r
#1660000
0!
0-
0o
#1665000
1!
1-
b100 G
b10010100 e
1o
b100 r
#1670000
0!
0-
0o
#1675000
1!
1-
b101 G
b10010101 e
1o
b101 r
#1680000
0!
0-
0o
#1685000
1!
1-
12
14!
b0 G
1J
b101 P
b10010110 e
1o
b0 r
1s
#1690000
0!
0-
0o
#1695000
1!
1-
02
04!
b1 G
0J
b101 O
b10010111 e
1o
b1 r
0s
#1700000
0!
0-
0o
#1705000
1!
1-
b10 G
b10011000 e
1o
b10 r
#1710000
0!
0-
0o
#1715000
1!
1-
b11 G
b10011001 e
1o
b11 r
#1720000
0!
0-
0o
#1725000
1!
1-
b100 G
b10011010 e
1o
b100 r
#1730000
0!
0-
0o
#1735000
1!
1-
b101 G
b10011011 e
1o
b101 r
#1740000
0!
0-
0o
#1745000
1!
1-
12
14!
b0 G
1J
b110 P
b10011100 e
1o
b0 r
1s
#1750000
0!
0-
0o
#1755000
1!
1-
02
04!
b1 G
0J
b110 O
b10011101 e
1o
b1 r
0s
#1760000
0!
0-
0o
#1765000
1!
1-
b10 G
b10011110 e
1o
b10 r
#1770000
0!
0-
0o
#1775000
1!
1-
b11 G
b10011111 e
1o
b11 r
#1780000
0!
0-
0o
#1785000
1!
1-
b100 G
b10100000 e
1o
b100 r
#1790000
0!
0-
0o
#1795000
1!
1-
b101 G
b10100001 e
1o
b101 r
#1800000
0!
0-
0o
#1805000
1!
1-
12
14!
b0 G
1J
b111 P
b10100010 e
1o
b0 r
1s
#1810000
0!
0-
0o
#1815000
1!
1-
02
04!
b1 G
0J
b111 O
b10100011 e
1o
b1 r
0s
#1820000
0!
0-
0o
#1825000
1!
1-
b10 G
b10100100 e
1o
b10 r
#1830000
0!
0-
0o
#1835000
1!
1-
b11 G
b10100101 e
1o
b11 r
#1840000
0!
0-
0o
#1845000
1!
1-
b100 G
b10100110 e
1o
b100 r
#1850000
0!
0-
0o
#1855000
1!
1-
b101 G
b10100111 e
1o
b101 r
#1860000
0!
0-
0o
#1865000
1!
1-
12
14!
b0 G
1J
b10 N
b0 P
b10101000 e
1o
b0 r
1s
#1870000
0!
0-
0o
#1875000
1!
1-
02
04!
b1 G
0J
b10 M
b0 O
b10101001 e
1o
b1 r
0s
#1880000
0!
0-
0o
#1885000
1!
1-
b10 G
b10101010 e
1o
b10 r
#1890000
0!
0-
0o
#1895000
1!
1-
b11 G
b10101011 e
1o
b11 r
#1900000
0!
0-
0o
#1905000
1!
1-
b100 G
b10101100 e
1o
b100 r
#1910000
0!
0-
0o
#1915000
1!
1-
b101 G
b10101101 e
1o
b101 r
#1920000
0!
0-
0o
#1925000
1!
1-
12
14!
b0 G
1J
b1 P
b10101110 e
1o
b0 r
1s
#1930000
0!
0-
0o
#1935000
1!
1-
02
04!
b1 G
0J
b1 O
b10101111 e
1o
b1 r
0s
#1940000
0!
0-
0o
#1945000
1!
1-
b10 G
b10110000 e
1o
b10 r
#1950000
0!
0-
0o
#1955000
1!
1-
b11 G
b10110001 e
1o
b11 r
#1960000
0!
0-
0o
#1965000
1!
1-
b100 G
b10110010 e
1o
b100 r
#1970000
0!
0-
0o
#1975000
1!
1-
b101 G
b10110011 e
1o
b101 r
#1980000
0!
0-
0o
#1985000
1!
1-
12
14!
b0 G
1J
b10 P
b10110100 e
1o
b0 r
1s
#1990000
0!
0-
0o
#1995000
1!
1-
02
04!
b1 G
0J
b10 O
b10110101 e
1o
b1 r
0s
#2000000
0!
0-
0o
#2005000
1!
1-
b10 G
b10110110 e
1o
b10 r
#2010000
0!
0-
0o
#2015000
1!
1-
b11 G
b10110111 e
1o
b11 r
#2020000
0!
0-
0o
#2025000
1!
1-
b100 G
b10111000 e
1o
b100 r
#2030000
0!
0-
0o
#2035000
1!
1-
b101 G
b10111001 e
1o
b101 r
#2040000
0!
0-
0o
#2045000
1!
1-
12
14!
b0 G
1J
b11 P
b10111010 e
1o
b0 r
1s
#2050000
0!
0-
0o
#2055000
1!
1-
02
04!
b1 G
0J
b11 O
b10111011 e
1o
b1 r
0s
#2060000
0!
0-
0o
#2065000
1!
1-
b10 G
b10111100 e
1o
b10 r
#2070000
0!
0-
0o
#2075000
1!
1-
b11 G
b10111101 e
1o
b11 r
#2080000
0!
0-
0o
#2085000
1!
1-
b100 G
b10111110 e
1o
b100 r
#2090000
0!
0-
0o
#2095000
1!
1-
b101 G
b10111111 e
1o
b101 r
#2100000
0!
0-
0o
#2105000
1!
1-
12
14!
b0 G
1J
b100 P
b11000000 e
1o
b0 r
1s
#2110000
0!
0-
0o
#2115000
1!
1-
02
04!
b1 G
0J
b100 O
b11000001 e
1o
b1 r
0s
#2120000
0!
0-
0o
#2125000
1!
1-
b10 G
b11000010 e
1o
b10 r
#2130000
0!
0-
0o
#2135000
1!
1-
b11 G
b11000011 e
1o
b11 r
#2140000
0!
0-
0o
#2145000
1!
1-
b100 G
b11000100 e
1o
b100 r
#2150000
0!
0-
0o
#2155000
1!
1-
b101 G
b11000101 e
1o
b101 r
#2160000
0!
0-
0o
#2165000
1!
1-
12
14!
b0 G
1J
b101 P
b11000110 e
1o
b0 r
1s
#2170000
0!
0-
0o
#2175000
1!
1-
02
04!
b1 G
0J
b101 O
b11000111 e
1o
b1 r
0s
#2180000
0!
0-
0o
#2185000
1!
1-
b10 G
b11001000 e
1o
b10 r
#2190000
0!
0-
0o
#2195000
1!
1-
b11 G
b11001001 e
1o
b11 r
#2200000
0!
0-
0o
#2205000
1!
1-
b100 G
b11001010 e
1o
b100 r
#2210000
0!
0-
0o
#2215000
1!
1-
b101 G
b11001011 e
1o
b101 r
#2220000
0!
0-
0o
#2225000
1!
1-
12
14!
b0 G
1J
b110 P
b11001100 e
1o
b0 r
1s
#2230000
0!
0-
0o
#2235000
1!
1-
02
04!
b1 G
0J
b110 O
b11001101 e
1o
b1 r
0s
#2240000
0!
0-
0o
#2245000
1!
1-
b10 G
b11001110 e
1o
b10 r
#2250000
0!
0-
0o
#2255000
1!
1-
b11 G
b11001111 e
1o
b11 r
#2260000
0!
0-
0o
#2265000
1!
1-
b100 G
b11010000 e
1o
b100 r
#2270000
0!
0-
0o
#2275000
1!
1-
b101 G
b11010001 e
1o
b101 r
#2280000
0!
0-
0o
#2285000
1!
1-
12
14!
b0 G
1J
b111 P
b11010010 e
1o
b0 r
1s
#2290000
0!
0-
0o
