OnDeviceAI2/0413_Control_Unit_LED/0413_Control_Unit_LED.sim/sim_1/behav/xsim/fsm_led_tb.vcd
$date
   Tue Apr 14 13:49:32 2026
$end
$version
  2020.2
$end
$timescale
  1ps
$end
$scope module fsm_led_tb $end
$var reg 1 ! clk $end
$var reg 1 " rst $end
$var reg 3 # sw [2:0] $end
$var wire 3 $ led [2:0] $end
$scope module dut $end
$var wire 1 % clk $end
$var wire 1 & rst $end
$var wire 3 ' sw [2:0] $end
$var reg 3 ( led [2:0] $end
$var reg 3 ) state [2:0] $end
$var reg 3 * next_state [2:0] $end
$var reg 3 + led_reg [2:0] $end
$var parameter 3 , LED_1 [2:0] $end
$var parameter 3 - LED_2 [2:0] $end
$var parameter 3 . LED_3 [2:0] $end
$var parameter 3 / LED_4 [2:0] $end
$var parameter 3 0 LED_5 [2:0] $end
$upscope $end
$upscope $end
$enddefinitions $end
#0
$dumpvars
0!
1"
b0 #
b0 $
0%
1&
b0 '
b0 (
b0 )
b0 *
b0 +
b0 ,
b100 -
b10 .
b1 /
b111 0
$end
#5000
1!
1%
#10000
0!
0%
#12000
0"
0&
#15000
1!
1%
#20000
0!
0%
#25000
1!
1%
#30000
0!
b1 #
0%
b1 '
b100 *
#35000
1!
1%
b100 )
b100 +
#40000
0!
b10 #
0%
b10 '
b10 *
#45000
1!
b100 $
1%
b100 (
b10 )
b10 +
#50000
0!
b100 #
0%
b100 '
b1 *
#55000
1!
b10 $
1%
b10 (
b1 )
b1 +
#60000
0!
b111 #
0%
b111 '
b111 *
#65000
1!
b1 $
1%
b1 (
b111 )
b111 +
#70000
0!
b0 #
0%
b0 '
b0 *
#75000
1!
b111 $
1%
b111 (
b0 )
b0 +
#80000
0!
b10 #
0%
b10 '
b10 *
#85000
1!
b0 $
1%
b0 (
b10 )
b10 +
#90000
0!
b1 #
0%
b1 '
#95000
1!
b10 $
1%
b10 (
#100000
0!
b100 #
0%
b100 '
b1 *
#105000
1!
1%
b1 )
b1 +
#110000
0!
b1 #
0%
b1 '
b100 *
#115000
1!
b1 $
1%
b1 (
b100 )
b100 +
#120000
0!
0%
#125000
1!
b100 $
1%
b100 (
